tb_fpdiv.vcd
$date
	Sat Nov 22 17:36:03 2025
$end
$version
	Icarus Verilog
$end
$timescale
	1ps
$end
$scope module tb_fpdiv $end
$var wire 16 ! y [15:0] $end
$var wire 1 " ready $end
$var reg 1 # clk $end
$var reg 1 $ en $end
$var reg 1 % rst $end
$var reg 16 & x1 [15:0] $end
$var reg 16 ' x2 [15:0] $end
$scope function bfloat16_to_real $end
$var reg 16 ( bf [15:0] $end
$var reg 8 ) exp [7:0] $end
$var reg 7 * mant [6:0] $end
$var reg 1 + sign $end
$upscope $end
$scope module dut $end
$var wire 1 # clk $end
$var wire 1 $ en $end
$var wire 1 , q_s $end
$var wire 1 " ready $end
$var wire 1 % rst $end
$var wire 16 - x1 [15:0] $end
$var wire 16 . x2 [15:0] $end
$var wire 16 / y [15:0] $end
$var wire 8 0 sub_out [7:0] $end
$var wire 16 1 result [15:0] $end
$var wire 16 2 reg_q_out [15:0] $end
$var wire 16 3 reg_b_out [15:0] $end
$var wire 16 4 reg_a_out [15:0] $end
$var wire 8 5 mantisa_r [7:0] $end
$var wire 8 6 exp_r [7:0] $end
$var wire 1 7 end2 $end
$var wire 1 8 end1 $end
$var wire 1 9 done $end
$var wire 12 : div_out [11:0] $end
$var wire 8 ; adder_out [7:0] $end
$var reg 8 < q_exp [7:0] $end
$var reg 11 = q_mant [10:0] $end
$scope module divider0 $end
$var wire 1 # clk $end
$var wire 12 > dividend [11:0] $end
$var wire 12 ? divisor [11:0] $end
$var wire 1 9 done $end
$var wire 12 @ quotient [11:0] $end
$var wire 1 % rst $end
$var wire 13 A sub_out [12:0] $end
$var wire 1 8 start $end
$var wire 13 B remainder_mux_out [12:0] $end
$var wire 1 C ovf $end
$var wire 13 D input_mux_out [12:0] $end
$var wire 1 E carry $end
$var parameter 32 F N $end
$var parameter 32 G compute_state $end
$var parameter 32 H start_state $end
$var reg 1 I clr_counter $end
$var reg 1 J clr_shift $end
$var reg 4 K counter [3:0] $end
$var reg 13 L divisor_reg [12:0] $end
$var reg 1 M en_counter $end
$var reg 1 N en_r $end
$var reg 1 O en_shift $end
$var reg 1 P en_y $end
$var reg 12 Q quotient_shift_reg [11:0] $end
$var reg 13 R remainder_reg [12:0] $end
$var reg 1 S sel_rx $end
$var reg 1 T state $end
$upscope $end
$scope module reg1en $end
$var wire 1 # clk $end
$var wire 1 $ d $end
$var wire 1 U en $end
$var wire 1 % rst $end
$var parameter 32 V N $end
$var reg 1 8 q $end
$upscope $end
$scope module reg2en $end
$var wire 1 # clk $end
$var wire 1 9 d $end
$var wire 1 W en $end
$var wire 1 % rst $end
$var parameter 32 X N $end
$var reg 1 7 q $end
$upscope $end
$scope module rounder0 $end
$var wire 8 Y exp_i [7:0] $end
$var wire 11 Z mant_i [10:0] $end
$var wire 8 [ mant_shift_output [7:0] $end
$var wire 8 \ mant_o [7:0] $end
$var wire 9 ] mant_adder_output [8:0] $end
$var wire 8 ^ exp_o [7:0] $end
$var wire 8 _ exp_adder_output [7:0] $end
$var reg 9 ` mant_rounded [8:0] $end
$upscope $end
$scope module x1reg $end
$var wire 1 # clk $end
$var wire 16 a d [15:0] $end
$var wire 1 $ en $end
$var wire 1 % rst $end
$var parameter 32 b N $end
$var reg 16 c q [15:0] $end
$upscope $end
$scope module x2reg $end
$var wire 1 # clk $end
$var wire 16 d d [15:0] $end
$var wire 1 $ en $end
$var wire 1 % rst $end
$var parameter 32 e N $end
$var reg 16 f q [15:0] $end
$upscope $end
$scope module yreg $end
$var wire 1 # clk $end
$var wire 16 g d [15:0] $end
$var wire 1 9 en $end
$var wire 1 % rst $end
$var parameter 32 h N $end
$var reg 16 i q [15:0] $end
$upscope $end
$upscope $end
$upscope $end
$enddefinitions $end
$comment Show the parameter values. $end
$dumpall
b10000 h
b10000 e
b10000 b
b1 X
b1 V
b0 H
b1 G
b1100 F
$end
#0
$dumpvars
b0 i
b1111111111111111 g
b0 f
b0 d
b0 c
b0 a
b0 `
b1111111 _
b1111110 ^
b1 ]
b0 \
b0 [
b0 Z
b1111110 Y
1W
1U
0T
0S
b0 R
b0 Q
0P
0O
0N
0M
b0 L
b0 K
0J
0I
0E
b0 D
0C
b0 B
b0 A
b0 @
b100000000000 ?
b100000000000 >
b0 =
b1111110 <
b1111111 ;
b0 :
09
08
07
b1111110 6
b0 5
b0 4
b0 3
b0 2
b1111111111111111 1
b0 0
b0 /
b0 .
b0 -
0,
x+
bx *
bx )
bx (
b0 '
b0 &
1%
0$
0#
0"
b0 !
$end
#5000
1#
#10000
0#
#15000
1#
#20000
0#
0%
#25000
1#
#30000
0#
1$
b100000000000000 '
b100000000000000 .
b100000000000000 d
b100000010000000 &
b100000010000000 -
b100000010000000 a
#35000
b100000000000 D
b1111111 6
b1111111 ^
b10000000 _
b1111111 <
b1111111 Y
1S
1N
1P
1M
1O
1J
1I
b11111110000000 1
b11111110000000 g
b10000000 ;
b1 0
b100000010000000 4
b100000010000000 c
b100000000000000 3
b100000000000000 f
18
1#
#40000
0#
0$
#45000
b0 D
0I
0J
0S
0P
08
1T
b100000000000 R
b0 A
b100000000000 L
1#
#50000
0#
#55000
b1 =
b1 Z
b0 D
1E
b0 B
b1 :
b1 @
b1 Q
b1100000000000 A
b0 R
b1 K
1#
#60000
0#
#65000
b10 =
b10 Z
b10 K
b10 :
b10 @
b10 Q
1#
#70000
0#
#75000
b100 =
b100 Z
b100 :
b100 @
b100 Q
b11 K
1#
#80000
0#
#85000
b11111110000001 1
b11111110000001 g
b1 5
b1 \
b1 `
b1 [
b10 ]
b1000 =
b1000 Z
b100 K
b1000 :
b1000 @
b1000 Q
1#
#90000
0#
#95000
b11111110000010 1
b11111110000010 g
b10 5
b10 \
b10 `
b10 [
b11 ]
b10000 =
b10000 Z
b10000 :
b10000 @
b10000 Q
b101 K
1#
#100000
0#
#105000
b11111110000100 1
b11111110000100 g
b100 5
b100 \
b100 `
b100 [
b101 ]
b100000 =
b100000 Z
b110 K
b100000 :
b100000 @
b100000 Q
1#
#110000
0#
#115000
b11111110001000 1
b11111110001000 g
b1000 5
b1000 \
b1000 `
b1000 [
b1001 ]
b1000000 =
b1000000 Z
b1000000 :
b1000000 @
b1000000 Q
b111 K
1#
#120000
0#
#125000
b11111110010000 1
b11111110010000 g
b10000 5
b10000 \
b10000 `
b10000 [
b10001 ]
b10000000 =
b10000000 Z
b1000 K
b10000000 :
b10000000 @
b10000000 Q
1#
#130000
0#
#135000
b11111110100000 1
b11111110100000 g
b100000 5
b100000 \
b100000 `
b100000 [
b100001 ]
b100000000 =
b100000000 Z
b100000000 :
b100000000 @
b100000000 Q
b1001 K
1#
#140000
0#
#145000
b11111111000000 1
b11111111000000 g
b1000000 5
b1000000 \
b1000000 `
b1000000 [
b1000001 ]
b1000000000 =
b1000000000 Z
b1010 K
b1000000000 :
b1000000000 @
b1000000000 Q
1#
#150000
0#
#155000
b11111110000000 1
b11111110000000 g
b10000000 5
b10000000 \
b10000000 `
b10000000 [
b10000001 ]
b10000000000 =
b10000000000 Z
b10000000000 :
b10000000000 @
b10000000000 Q
b1011 K
1#
#160000
0#
#165000
b100000000000000 1
b100000000000000 g
b10000000 6
b10000000 ^
b10000001 _
b10000000 <
b10000000 Y
19
1C
b1100 K
b100000000000 :
b100000000000 @
b100000000000 Q
1#
#170000
0#
#175000
b0 5
b0 \
b11111110000000 1
b11111110000000 g
b0 `
b0 [
b1 ]
b1111111 6
b1111111 ^
b0 =
b0 Z
b10000000 _
b1111111 <
b1111111 Y
0O
0N
0M
09
0C
b0 :
b0 @
b0 Q
0T
b1101 K
b100000000000000 !
b100000000000000 /
b100000000000000 2
b100000000000000 i
1"
17
1#
#180000
0#
#185000
0"
07
1#
#190000
0#
#195000
b110000000000 D
1S
1N
1P
1M
1O
1J
1I
b1011111110000000 1
b1011111110000000 g
b110000000000 >
1,
b110000000000 ?
b1100000011000000 4
b1100000011000000 c
b100000001000000 3
b100000001000000 f
18
1#
1$
b100000001000000 '
b100000001000000 .
b100000001000000 d
b1100000011000000 &
b1100000011000000 -
b1100000011000000 a
#200000
0#
#205000
b0 D
0I
0J
0S
0P
b0 B
0E
08
b0 K
1T
b110000000000 R
b0 A
b110000000000 L
1#
0$
#210000
0#
#215000
b1 =
b1 Z
b0 D
1E
b0 B
b1 :
b1 @
b1 Q
b1010000000000 A
b0 R
b1 K
1#
#220000
0#
#225000
b10 =
b10 Z
b10 K
b10 :
b10 @
b10 Q
1#
#230000
0#
#235000
b100 =
b100 Z
b100 :
b100 @
b100 Q
b11 K
1#
#240000
0#
#245000
b1011111110000001 1
b1011111110000001 g
b1 5
b1 \
b1 `
b1 [
b10 ]
b1000 =
b1000 Z
b100 K
b1000 :
b1000 @
b1000 Q
1#
#250000
0#
#255000
b1011111110000010 1
b1011111110000010 g
b10 5
b10 \
b10 `
b10 [
b11 ]
b10000 =
b10000 Z
b10000 :
b10000 @
b10000 Q
b101 K
1#
#260000
0#
#265000
b1011111110000100 1
b1011111110000100 g
b100 5
b100 \
b100 `
b100 [
b101 ]
b100000 =
b100000 Z
b110 K
b100000 :
b100000 @
b100000 Q
1#
#270000
0#
#275000
b1011111110001000 1
b1011111110001000 g
b1000 5
b1000 \
b1000 `
b1000 [
b1001 ]
b1000000 =
b1000000 Z
b1000000 :
b1000000 @
b1000000 Q
b111 K
1#
#280000
0#
#285000
b1011111110010000 1
b1011111110010000 g
b10000 5
b10000 \
b10000 `
b10000 [
b10001 ]
b10000000 =
b10000000 Z
b1000 K
b10000000 :
b10000000 @
b10000000 Q
1#
#290000
0#
#295000
b1011111110100000 1
b1011111110100000 g
b100000 5
b100000 \
b100000 `
b100000 [
b100001 ]
b100000000 =
b100000000 Z
b100000000 :
b100000000 @
b100000000 Q
b1001 K
1#
#300000
0#
#305000
b1011111111000000 1
b1011111111000000 g
b1000000 5
b1000000 \
b1000000 `
b1000000 [
b1000001 ]
b1000000000 =
b1000000000 Z
b1010 K
b1000000000 :
b1000000000 @
b1000000000 Q
1#
#310000
0#
#315000
b1011111110000000 1
b1011111110000000 g
b10000000 5
b10000000 \
b10000000 `
b10000000 [
b10000001 ]
b10000000000 =
b10000000000 Z
b10000000000 :
b10000000000 @
b10000000000 Q
b1011 K
1#
#320000
0#
#325000
b1100000000000000 1
b1100000000000000 g
b10000000 6
b10000000 ^
b10000001 _
b10000000 <
b10000000 Y
19
1C
b1100 K
b100000000000 :
b100000000000 @
b100000000000 Q
1#
#330000
0#
#335000
b0 5
b0 \
b1011111110000000 1
b1011111110000000 g
b0 `
b0 [
b1 ]
b1111111 6
b1111111 ^
b0 =
b0 Z
b10000000 _
b1111111 <
b1111111 Y
0O
0N
0M
09
0C
b0 :
b0 @
b0 Q
0T
b1101 K
b1100000000000000 !
b1100000000000000 /
b1100000000000000 2
b1100000000000000 i
1"
17
1#
#340000
0#
#345000
0"
07
1#
#350000
0#
#355000
b100000000000 D
b11111110 6
b11111110 ^
b11111111 _
b11111110 <
b11111110 Y
1S
1N
1P
1M
1O
1J
1I
b0 1
b0 g
b100000000000 >
0,
b100000000000 ?
b11111111 ;
b10000000 0
b0 4
b0 c
b100000000000000 3
b100000000000000 f
18
1#
1$
b100000000000000 '
b100000000000000 .
b100000000000000 d
b0 &
b0 -
b0 a
#360000
0#
#365000
b0 D
0I
0J
0S
0P
b0 B
0E
08
b0 K
1T
b100000000000 R
b0 A
b100000000000 L
1#
0$
#370000
0#
#375000
b1 =
b1 Z
b0 D
1E
b0 B
b1 :
b1 @
b1 Q
b1100000000000 A
b0 R
b1 K
1#
#380000
0#
#385000
b10 =
b10 Z
b10 K
b10 :
b10 @
b10 Q
1#
#390000
0#
#395000
b100 =
b100 Z
b100 :
b100 @
b100 Q
b11 K
1#
#400000
0#
#405000
b1 5
b1 \
b1 `
b1 [
b10 ]
b1000 =
b1000 Z
b100 K
b1000 :
b1000 @
b1000 Q
1#
#410000
0#
#415000
b10 5
b10 \
b10 `
b10 [
b11 ]
b10000 =
b10000 Z
b10000 :
b10000 @
b10000 Q
b101 K
1#
#420000
0#
#425000
b100 5
b100 \
b100 `
b100 [
b101 ]
b100000 =
b100000 Z
b110 K
b100000 :
b100000 @
b100000 Q
1#
#430000
0#
#435000
b1000 5
b1000 \
b1000 `
b1000 [
b1001 ]
b1000000 =
b1000000 Z
b1000000 :
b1000000 @
b1000000 Q
b111 K
1#
#440000
0#
#445000
b10000 5
b10000 \
b10000 `
b10000 [
b10001 ]
b10000000 =
b10000000 Z
b1000 K
b10000000 :
b10000000 @
b10000000 Q
1#
#450000
0#
#455000
b100000 5
b100000 \
b100000 `
b100000 [
b100001 ]
b100000000 =
b100000000 Z
b100000000 :
b100000000 @
b100000000 Q
b1001 K
1#
#460000
0#
#465000
b1000000 5
b1000000 \
b1000000 `
b1000000 [
b1000001 ]
b1000000000 =
b1000000000 Z
b1010 K
b1000000000 :
b1000000000 @
b1000000000 Q
1#
#470000
0#
#475000
b10000000 5
b10000000 \
b10000000 `
b10000000 [
b10000001 ]
b10000000000 =
b10000000000 Z
b10000000000 :
b10000000000 @
b10000000000 Q
b1011 K
1#
#480000
0#
#485000
b11111111 6
b11111111 ^
b0 _
b11111111 <
b11111111 Y
19
1C
b1100 K
b100000000000 :
b100000000000 @
b100000000000 Q
1#
#490000
0#
#495000
b0 5
b0 \
b0 `
b0 [
b1 ]
b11111110 6
b11111110 ^
b0 =
b0 Z
b11111111 _
b11111110 <
b11111110 Y
0O
0N
0M
09
0C
b0 :
b0 @
b0 Q
0T
b1101 K
b0 !
b0 /
b0 2
b0 i
1"
17
1#
#500000
0#
#505000
0"
07
1#
#510000
0#
#515000
b100000000000 D
1S
1N
1P
1M
1O
1J
1I
b111111110000000 1
b111111110000000 g
b11111111 ;
b10000000 0
b100000000000000 4
b100000000000000 c
b0 3
b0 f
18
1#
1$
b0 '
b0 .
b0 d
b100000000000000 &
b100000000000000 -
b100000000000000 a
#520000
0#
#525000
b0 D
0I
0J
0S
0P
b0 B
0E
08
b0 K
1T
b0 A
b100000000000 R
1#
0$
#530000
0#
#535000
b1 =
b1 Z
b0 D
1E
b0 B
b1 :
b1 @
b1 Q
b1100000000000 A
b0 R
b1 K
1#
#540000
0#
#545000
b10 =
b10 Z
b10 K
b10 :
b10 @
b10 Q
1#
#550000
0#
#555000
b100 =
b100 Z
b100 :
b100 @
b100 Q
b11 K
1#
#560000
0#
#565000
b1 5
b1 \
b1 `
b1 [
b10 ]
b1000 =
b1000 Z
b100 K
b1000 :
b1000 @
b1000 Q
1#
#570000
0#
#575000
b10 5
b10 \
b10 `
b10 [
b11 ]
b10000 =
b10000 Z
b10000 :
b10000 @
b10000 Q
b101 K
1#
#580000
0#
#585000
b100 5
b100 \
b100 `
b100 [
b101 ]
b100000 =
b100000 Z
b110 K
b100000 :
b100000 @
b100000 Q
1#
#590000
0#
#595000
b1000 5
b1000 \
b1000 `
b1000 [
b1001 ]
b1000000 =
b1000000 Z
b1000000 :
b1000000 @
b1000000 Q
b111 K
1#
#600000
0#
#605000
b10000 5
b10000 \
b10000 `
b10000 [
b10001 ]
b10000000 =
b10000000 Z
b1000 K
b10000000 :
b10000000 @
b10000000 Q
1#
#610000
0#
#615000
b100000 5
b100000 \
b100000 `
b100000 [
b100001 ]
b100000000 =
b100000000 Z
b100000000 :
b100000000 @
b100000000 Q
b1001 K
1#
#620000
0#
#625000
b1000000 5
b1000000 \
b1000000 `
b1000000 [
b1000001 ]
b1000000000 =
b1000000000 Z
b1010 K
b1000000000 :
b1000000000 @
b1000000000 Q
1#
#630000
0#
#635000
b10000000 5
b10000000 \
b10000000 `
b10000000 [
b10000001 ]
b10000000000 =
b10000000000 Z
b10000000000 :
b10000000000 @
b10000000000 Q
b1011 K
1#
#640000
0#
#645000
b11111111 6
b11111111 ^
b0 _
b11111111 <
b11111111 Y
19
1C
b1100 K
b100000000000 :
b100000000000 @
b100000000000 Q
1#
#650000
0#
#655000
b0 5
b0 \
b0 `
b0 [
b1 ]
b11111110 6
b11111110 ^
b0 =
b0 Z
b11111111 _
b11111110 <
b11111110 Y
0O
0N
0M
09
0C
b0 :
b0 @
b0 Q
0T
b1101 K
b111111110000000 !
b111111110000000 /
b111111110000000 2
b111111110000000 i
1"
17
1#
#660000
0#
#665000
0"
07
1#
#670000
0#
#675000
b100000000000 D
b1111110 6
b1111110 ^
b1111111 _
b1111110 <
b1111110 Y
1S
1N
1P
1M
1O
1J
1I
b1111111111111111 1
b1111111111111111 g
b1111111 ;
b0 0
b0 4
b0 c
18
1#
1$
b0 &
b0 -
b0 a
#680000
0#
#685000
b0 D
0I
0J
0S
0P
b0 B
0E
08
b0 K
1T
b0 A
b100000000000 R
1#
0$
#690000
0#
#695000
b1 =
b1 Z
b0 D
1E
b0 B
b1 :
b1 @
b1 Q
b1100000000000 A
b0 R
b1 K
1#
#700000
0#
#705000
b10 =
b10 Z
b10 K
b10 :
b10 @
b10 Q
1#
#710000
0#
#715000
b100 =
b100 Z
b100 :
b100 @
b100 Q
b11 K
1#
#720000
0#
#725000
b1 5
b1 \
b1 `
b1 [
b10 ]
b1000 =
b1000 Z
b100 K
b1000 :
b1000 @
b1000 Q
1#
#730000
0#
#735000
b10 5
b10 \
b10 `
b10 [
b11 ]
b10000 =
b10000 Z
b10000 :
b10000 @
b10000 Q
b101 K
1#
#740000
0#
#745000
b100 5
b100 \
b100 `
b100 [
b101 ]
b100000 =
b100000 Z
b110 K
b100000 :
b100000 @
b100000 Q
1#
#750000
0#
#755000
b1000 5
b1000 \
b1000 `
b1000 [
b1001 ]
b1000000 =
b1000000 Z
b1000000 :
b1000000 @
b1000000 Q
b111 K
1#
#760000
0#
#765000
b10000 5
b10000 \
b10000 `
b10000 [
b10001 ]
b10000000 =
b10000000 Z
b1000 K
b10000000 :
b10000000 @
b10000000 Q
1#
#770000
0#
#775000
b100000 5
b100000 \
b100000 `
b100000 [
b100001 ]
b100000000 =
b100000000 Z
b100000000 :
b100000000 @
b100000000 Q
b1001 K
1#
#780000
0#
#785000
b1000000 5
b1000000 \
b1000000 `
b1000000 [
b1000001 ]
b1000000000 =
b1000000000 Z
b1010 K
b1000000000 :
b1000000000 @
b1000000000 Q
1#
#790000
0#
#795000
b10000000 5
b10000000 \
b10000000 `
b10000000 [
b10000001 ]
b10000000000 =
b10000000000 Z
b10000000000 :
b10000000000 @
b10000000000 Q
b1011 K
1#
#800000
0#
#805000
b1111111 6
b1111111 ^
b10000000 _
b1111111 <
b1111111 Y
19
1C
b1100 K
b100000000000 :
b100000000000 @
b100000000000 Q
1#
#810000
0#
#815000
b0 5
b0 \
b0 `
b0 [
b1 ]
b1111110 6
b1111110 ^
b0 =
b0 Z
b1111111 _
b1111110 <
b1111110 Y
0O
0N
0M
09
0C
b0 :
b0 @
b0 Q
0T
b1101 K
b1111111111111111 !
b1111111111111111 /
b1111111111111111 2
b1111111111111111 i
1"
17
1#
#820000
0#
#825000
0"
07
1#
