funtes/src/top_system_tb.vcd
$date
	Thu Nov 13 16:39:00 2025
$end
$version
	Icarus Verilog
$end
$timescale
	1ps
$end
$scope module top_system_tb $end
$var wire 1 ! miso $end
$var reg 1 " clk $end
$var reg 1 # cs $end
$var reg 1 $ mosi $end
$var reg 16 % result [15:0] $end
$var reg 1 & rst $end
$var reg 1 ' sck $end
$scope module uut $end
$var wire 1 " clk $end
$var wire 1 # cs $end
$var wire 1 $ mosi $end
$var wire 1 & rst $end
$var wire 1 ' sck $end
$var wire 16 ( y [15:0] $end
$var wire 16 ) x2 [15:0] $end
$var wire 16 * x1 [15:0] $end
$var wire 1 + ready $end
$var wire 1 ! miso $end
$var wire 1 , en $end
$scope module fpmul_inst $end
$var wire 1 " clk $end
$var wire 1 - p_s $end
$var wire 1 + ready $end
$var wire 1 & rst $end
$var wire 16 . y [15:0] $end
$var wire 16 / x2 [15:0] $end
$var wire 16 0 x1 [15:0] $end
$var wire 8 1 sub_out [7:0] $end
$var wire 55 2 seg_reg0_out [54:0] $end
$var wire 16 3 result [15:0] $end
$var wire 16 4 reg_p_out [15:0] $end
$var wire 16 5 reg_b_out [15:0] $end
$var wire 16 6 reg_a_out [15:0] $end
$var wire 8 7 p_mant [7:0] $end
$var wire 8 8 p_exp [7:0] $end
$var wire 16 9 mult_out [15:0] $end
$var wire 11 : mant_grs [10:0] $end
$var wire 8 ; exp_grs [7:0] $end
$var wire 1 < end3 $end
$var wire 1 = end2 $end
$var wire 1 > end1 $end
$var wire 1 , en $end
$var wire 8 ? adder_out [7:0] $end
$scope module reg1en $end
$var wire 1 " clk $end
$var wire 1 @ en $end
$var wire 1 & rst $end
$var wire 1 , d $end
$var parameter 32 A N $end
$var reg 1 > q $end
$upscope $end
$scope module reg2en $end
$var wire 1 " clk $end
$var wire 1 > d $end
$var wire 1 B en $end
$var wire 1 & rst $end
$var parameter 32 C N $end
$var reg 1 = q $end
$upscope $end
$scope module reg3en $end
$var wire 1 " clk $end
$var wire 1 = d $end
$var wire 1 D en $end
$var wire 1 & rst $end
$var parameter 32 E N $end
$var reg 1 < q $end
$upscope $end
$scope module rounder0 $end
$var wire 8 F exp_i [7:0] $end
$var wire 11 G mant_i [10:0] $end
$var wire 8 H mant_shift_output [7:0] $end
$var wire 8 I mant_o [7:0] $end
$var wire 9 J mant_adder_output [8:0] $end
$var wire 8 K exp_o [7:0] $end
$var wire 8 L exp_adder_output [7:0] $end
$var reg 9 M mant_rounded [8:0] $end
$upscope $end
$scope module seg_reg0 $end
$var wire 1 " clk $end
$var wire 55 N d [54:0] $end
$var wire 1 > en $end
$var wire 1 & rst $end
$var parameter 32 O N $end
$var reg 55 P q [54:0] $end
$upscope $end
$scope module x1reg $end
$var wire 1 " clk $end
$var wire 1 & rst $end
$var wire 1 , en $end
$var wire 16 Q d [15:0] $end
$var parameter 32 R N $end
$var reg 16 S q [15:0] $end
$upscope $end
$scope module x2reg $end
$var wire 1 " clk $end
$var wire 1 & rst $end
$var wire 1 , en $end
$var wire 16 T d [15:0] $end
$var parameter 32 U N $end
$var reg 16 V q [15:0] $end
$upscope $end
$scope module yreg $end
$var wire 1 " clk $end
$var wire 16 W d [15:0] $end
$var wire 1 = en $end
$var wire 1 & rst $end
$var parameter 32 X N $end
$var reg 16 Y q [15:0] $end
$upscope $end
$upscope $end
$scope module spi_slave_inst $end
$var wire 1 " clk $end
$var wire 1 # cs $end
$var wire 1 $ mosi $end
$var wire 1 + ready $end
$var wire 1 & rst $end
$var wire 1 ' sck $end
$var wire 1 Z sck_falling $end
$var wire 1 [ sck_rising $end
$var wire 16 \ y [15:0] $end
$var parameter 3 ] IDLE $end
$var parameter 3 ^ RECV_X1 $end
$var parameter 3 _ RECV_X2 $end
$var parameter 3 ` SEND_Y $end
$var parameter 3 a WAIT_READY $end
$var reg 6 b bit_cnt [5:0] $end
$var reg 32 c data_in [31:0] $end
$var reg 16 d data_out [15:0] $end
$var reg 1 , en $end
$var reg 1 ! miso $end
$var reg 1 e sck_dly $end
$var reg 3 f state [2:0] $end
$var reg 16 g x1 [15:0] $end
$var reg 16 h x2 [15:0] $end
$upscope $end
$upscope $end
$scope task spi_receive $end
$var reg 16 i tmp [15:0] $end
$var reg 16 j word [15:0] $end
$var integer 32 k i [31:0] $end
$upscope $end
$scope task spi_send_bit $end
$var reg 1 l data $end
$upscope $end
$scope task spi_send_word $end
$var reg 16 m word [15:0] $end
$var integer 32 n i [31:0] $end
$upscope $end
$upscope $end
$enddefinitions $end
$comment Show the parameter values. $end
$dumpall
b11 a
b100 `
b10 _
b1 ^
b0 ]
b10000 X
b10000 U
b10000 R
b110111 O
b1 E
b1 C
b1 A
$end
#0
$dumpvars
bx n
bx m
xl
bx k
bx j
bx i
b0 h
b0 g
b0 f
0e
b0 d
b0 c
b0 b
b0 \
0[
0Z
b0 Y
b0 W
b0 V
b0 T
b0 S
b0 Q
b0 P
b100000010100000000000000 N
b0 M
b1 L
b0 K
b1 J
b0 I
b0 H
b0 G
b0 F
1D
1B
1@
b0 ?
0>
0=
0<
b0 ;
b0 :
b100000000000000 9
b0 8
b0 7
b0 6
b0 5
b0 4
b0 3
b0 2
b10000001 1
b0 0
b0 /
b0 .
0-
0,
0+
b0 *
b0 )
b0 (
0'
1&
bx %
0$
1#
0"
0!
$end
#5000
1"
#10000
0"
#15000
1"
#20000
1[
0"
1'
#25000
1"
#30000
0"
#35000
1"
#40000
0[
0"
0'
#45000
1"
#50000
0"
0&
#55000
1"
#60000
1[
0"
1'
#65000
0[
1e
1"
#70000
0"
0l
b1111 n
b100000001000000 m
0#
#75000
b1 f
1"
#80000
1Z
0"
0'
#85000
0Z
0e
1"
#90000
0"
#95000
1"
#100000
1[
1$
1l
b1110 n
0"
1'
#105000
0[
b1 b
b1 c
1e
1"
#110000
0"
#115000
1"
#120000
1Z
0"
0'
#125000
0Z
0e
1"
#130000
0"
#135000
1"
#140000
1[
0$
0l
b1101 n
0"
1'
#145000
0[
b10 b
b10 c
1e
1"
#150000
0"
#155000
1"
#160000
1Z
0"
0'
#165000
0Z
0e
1"
#170000
0"
#175000
1"
#180000
1[
b1100 n
0"
1'
#185000
0[
b11 b
b100 c
1e
1"
#190000
0"
#195000
1"
#200000
1Z
0"
0'
#205000
0Z
0e
1"
#210000
0"
#215000
1"
#220000
1[
b1011 n
0"
1'
#225000
0[
b100 b
b1000 c
1e
1"
#230000
0"
#235000
1"
#240000
1Z
0"
0'
#245000
0Z
0e
1"
#250000
0"
#255000
1"
#260000
1[
b1010 n
0"
1'
#265000
0[
b101 b
b10000 c
1e
1"
#270000
0"
#275000
1"
#280000
1Z
0"
0'
#285000
0Z
0e
1"
#290000
0"
#295000
1"
#300000
1[
b1001 n
0"
1'
#305000
0[
b110 b
b100000 c
1e
1"
#310000
0"
#315000
1"
#320000
1Z
0"
0'
#325000
0Z
0e
1"
#330000
0"
#335000
1"
#340000
1[
b1000 n
0"
1'
#345000
0[
b111 b
b1000000 c
1e
1"
#350000
0"
#355000
1"
#360000
1Z
0"
0'
#365000
0Z
0e
1"
#370000
0"
#375000
1"
#380000
1[
b111 n
0"
1'
#385000
0[
b1000 b
b10000000 c
1e
1"
#390000
0"
#395000
1"
#400000
1Z
0"
0'
#405000
0Z
0e
1"
#410000
0"
#415000
1"
#420000
1[
1$
1l
b110 n
0"
1'
#425000
0[
b1001 b
b100000001 c
1e
1"
#430000
0"
#435000
1"
#440000
1Z
0"
0'
#445000
0Z
0e
1"
#450000
0"
#455000
1"
#460000
1[
0$
0l
b101 n
0"
1'
#465000
0[
b1010 b
b1000000010 c
1e
1"
#470000
0"
#475000
1"
#480000
1Z
0"
0'
#485000
0Z
0e
1"
#490000
0"
#495000
1"
#500000
1[
b100 n
0"
1'
#505000
0[
b1011 b
b10000000100 c
1e
1"
#510000
0"
#515000
1"
#520000
1Z
0"
0'
#525000
0Z
0e
1"
#530000
0"
#535000
1"
#540000
1[
b11 n
0"
1'
#545000
0[
b1100 b
b100000001000 c
1e
1"
#550000
0"
#555000
1"
#560000
1Z
0"
0'
#565000
0Z
0e
1"
#570000
0"
#575000
1"
#580000
1[
b10 n
0"
1'
#585000
0[
b1101 b
b1000000010000 c
1e
1"
#590000
0"
#595000
1"
#600000
1Z
0"
0'
#605000
0Z
0e
1"
#610000
0"
#615000
1"
#620000
1[
b1 n
0"
1'
#625000
0[
b1110 b
b10000000100000 c
1e
1"
#630000
0"
#635000
1"
#640000
1Z
0"
0'
#645000
0Z
0e
1"
#650000
0"
#655000
1"
#660000
1[
b0 n
0"
1'
#665000
0[
b1111 b
b100000001000000 c
1e
1"
#670000
0"
#675000
1"
#680000
1Z
0"
0'
#685000
0Z
0e
1"
#690000
0"
#695000
1"
#700000
1[
b100000000000000 m
b1111 n
0"
1'
#705000
0[
b10 f
b1000000010000000 *
b1000000010000000 0
b1000000010000000 Q
b1000000010000000 g
b0 b
b1000000010000000 c
1e
1"
#710000
0"
#715000
1"
#720000
1Z
0"
0'
#725000
0Z
0e
1"
#730000
0"
#735000
1"
#740000
1[
1$
1l
b1110 n
0"
1'
#745000
0[
b1 b
b10000000100000001 c
1e
1"
#750000
0"
#755000
1"
#760000
1Z
0"
0'
#765000
0Z
0e
1"
#770000
0"
#775000
1"
#780000
1[
0$
0l
b1101 n
0"
1'
#785000
0[
b10 b
b100000001000000010 c
1e
1"
#790000
0"
#795000
1"
#800000
1Z
0"
0'
#805000
0Z
0e
1"
#810000
0"
#815000
1"
#820000
1[
b1100 n
0"
1'
#825000
0[
b11 b
b1000000010000000100 c
1e
1"
#830000
0"
#835000
1"
#840000
1Z
0"
0'
#845000
0Z
0e
1"
#850000
0"
#855000
1"
#860000
1[
b1011 n
0"
1'
#865000
0[
b100 b
b10000000100000001000 c
1e
1"
#870000
0"
#875000
1"
#880000
1Z
0"
0'
#885000
0Z
0e
1"
#890000
0"
#895000
1"
#900000
1[
b1010 n
0"
1'
#905000
0[
b101 b
b100000001000000010000 c
1e
1"
#910000
0"
#915000
1"
#920000
1Z
0"
0'
#925000
0Z
0e
1"
#930000
0"
#935000
1"
#940000
1[
b1001 n
0"
1'
#945000
0[
b110 b
b1000000010000000100000 c
1e
1"
#950000
0"
#955000
1"
#960000
1Z
0"
0'
#965000
0Z
0e
1"
#970000
0"
#975000
1"
#980000
1[
b1000 n
0"
1'
#985000
0[
b111 b
b10000000100000001000000 c
1e
1"
#990000
0"
#995000
1"
#1000000
1Z
0"
0'
#1005000
0Z
0e
1"
#1010000
0"
#1015000
1"
#1020000
1[
b111 n
0"
1'
#1025000
0[
b1000 b
b100000001000000010000000 c
1e
1"
#1030000
0"
#1035000
1"
#1040000
1Z
0"
0'
#1045000
0Z
0e
1"
#1050000
0"
#1055000
1"
#1060000
1[
b110 n
0"
1'
#1065000
0[
b1001 b
b1000000010000000100000000 c
1e
1"
#1070000
0"
#1075000
1"
#1080000
1Z
0"
0'
#1085000
0Z
0e
1"
#1090000
0"
#1095000
1"
#1100000
1[
b101 n
0"
1'
#1105000
0[
b1010 b
b10000000100000001000000000 c
1e
1"
#1110000
0"
#1115000
1"
#1120000
1Z
0"
0'
#1125000
0Z
0e
1"
#1130000
0"
#1135000
1"
#1140000
1[
b100 n
0"
1'
#1145000
0[
b1011 b
b100000001000000010000000000 c
1e
1"
#1150000
0"
#1155000
1"
#1160000
1Z
0"
0'
#1165000
0Z
0e
1"
#1170000
0"
#1175000
1"
#1180000
1[
b11 n
0"
1'
#1185000
0[
b1100 b
b1000000010000000100000000000 c
1e
1"
#1190000
0"
#1195000
1"
#1200000
1Z
0"
0'
#1205000
0Z
0e
1"
#1210000
0"
#1215000
1"
#1220000
1[
b10 n
0"
1'
#1225000
0[
b1101 b
b10000000100000001000000000000 c
1e
1"
#1230000
0"
#1235000
1"
#1240000
1Z
0"
0'
#1245000
0Z
0e
1"
#1250000
0"
#1255000
1"
#1260000
1[
b1 n
0"
1'
#1265000
0[
b1110 b
b100000001000000010000000000000 c
1e
1"
#1270000
0"
#1275000
1"
#1280000
1Z
0"
0'
#1285000
0Z
0e
1"
#1290000
0"
#1295000
1"
#1300000
1[
b0 n
0"
1'
#1305000
0[
b1111 b
b1000000010000000100000000000000 c
1e
1"
#1310000
0"
#1315000
1"
#1320000
1Z
0"
0'
#1325000
0Z
0e
1"
#1330000
0"
#1335000
1"
#1340000
1[
1#
b11111111111111111111111111111111 n
0"
1'
#1345000
0[
1e
1"
#1350000
0"
#1355000
1"
#1360000
1Z
0"
0'
#1365000
0Z
0e
1"
#1370000
0"
#1375000
1"
#1380000
1[
0"
1'
#1385000
0[
1e
1"
#1390000
0"
#1395000
1"
#1400000
1Z
0"
0'
#1405000
0Z
0e
1"
#1410000
0"
#1415000
1"
#1420000
1[
0"
1'
#1425000
0[
1e
1"
#1430000
0"
#1435000
1"
#1440000
1Z
0"
0'
b1111 k
b0 i
0#
#1445000
0Z
0e
1"
#1450000
0"
#1455000
1"
#1460000
1[
b1110 k
0"
1'
#1465000
0[
b11 f
1,
b1000000000000000 )
b1000000000000000 /
b1000000000000000 T
b1000000000000000 h
b0 b
b10000000100000001000000000000000 c
1e
1"
#1470000
0"
#1475000
b10000000000000000000000100000100100000000000000 N
b10000010 1
b1 ?
b1000000010000000 6
b1000000010000000 S
b1000000000000000 5
b1000000000000000 V
1>
0,
1"
#1480000
1Z
0"
0'
#1485000
b10000000 7
b10000000 I
b10000000 M
b10000000 H
b10000001 J
b10000010 8
b10000010 K
b10000000000 :
b10000000000 G
b10000011 L
b10000010 ;
b10000010 F
0Z
0e
1=
0>
b10000000000000000000000100000100100000000000000 2
b10000000000000000000000100000100100000000000000 P
1"
#1490000
0"
#1495000
0=
1+
1<
1"
#1500000
1[
b1101 k
0"
1'
#1505000
0[
b100 f
1e
0+
0<
1"
#1510000
0"
#1515000
1"
#1520000
1Z
0"
0'
#1525000
0Z
b1 b
0e
1"
#1530000
0"
#1535000
1"
#1540000
1[
b1100 k
0"
1'
#1545000
0[
1e
1"
#1550000
0"
#1555000
1"
#1560000
1Z
0"
0'
#1565000
0Z
b10 b
0e
1"
#1570000
0"
#1575000
1"
#1580000
1[
b1011 k
0"
1'
#1585000
0[
1e
1"
#1590000
0"
#1595000
1"
#1600000
1Z
0"
0'
#1605000
0Z
b11 b
0e
1"
#1610000
0"
#1615000
1"
#1620000
1[
b1010 k
0"
1'
#1625000
0[
1e
1"
#1630000
0"
#1635000
1"
#1640000
1Z
0"
0'
#1645000
0Z
b100 b
0e
1"
#1650000
0"
#1655000
1"
#1660000
1[
b1001 k
0"
1'
#1665000
0[
1e
1"
#1670000
0"
#1675000
1"
#1680000
1Z
0"
0'
#1685000
0Z
b101 b
0e
1"
#1690000
0"
#1695000
1"
#1700000
1[
b1000 k
0"
1'
#1705000
0[
1e
1"
#1710000
0"
#1715000
1"
#1720000
1Z
0"
0'
#1725000
0Z
b110 b
0e
1"
#1730000
0"
#1735000
1"
#1740000
1[
b111 k
0"
1'
#1745000
0[
1e
1"
#1750000
0"
#1755000
1"
#1760000
1Z
0"
0'
#1765000
0Z
b111 b
0e
1"
#1770000
0"
#1775000
1"
#1780000
1[
b110 k
0"
1'
#1785000
0[
1e
1"
#1790000
0"
#1795000
1"
#1800000
1Z
0"
0'
#1805000
0Z
b1000 b
0e
1"
#1810000
0"
#1815000
1"
#1820000
1[
b101 k
0"
1'
#1825000
0[
1e
1"
#1830000
0"
#1835000
1"
#1840000
1Z
0"
0'
#1845000
0Z
b1001 b
0e
1"
#1850000
0"
#1855000
1"
#1860000
1[
b100 k
0"
1'
#1865000
0[
1e
1"
#1870000
0"
#1875000
1"
#1880000
1Z
0"
0'
#1885000
0Z
b1010 b
0e
1"
#1890000
0"
#1895000
1"
#1900000
1[
b11 k
0"
1'
#1905000
0[
1e
1"
#1910000
0"
#1915000
1"
#1920000
1Z
0"
0'
#1925000
0Z
b1011 b
0e
1"
#1930000
0"
#1935000
1"
#1940000
1[
b10 k
0"
1'
#1945000
0[
1e
1"
#1950000
0"
#1955000
1"
#1960000
1Z
0"
0'
#1965000
0Z
b1100 b
0e
1"
#1970000
0"
#1975000
1"
#1980000
1[
b1 k
0"
1'
#1985000
0[
1e
1"
#1990000
0"
#1995000
1"
#2000000
1Z
0"
0'
#2005000
0Z
b1101 b
0e
1"
#2010000
0"
#2015000
1"
#2020000
1[
b0 k
0"
1'
#2025000
0[
1e
1"
#2030000
0"
#2035000
1"
#2040000
1Z
0"
0'
#2045000
0Z
b1110 b
0e
1"
#2050000
0"
#2055000
1"
#2060000
1[
1#
b0 %
b0 j
b11111111111111111111111111111111 k
0"
1'
#2065000
0[
1e
1"
#2070000
0"
#2075000
1"
#2080000
1Z
0"
0'
#2085000
0Z
0e
1"
#2090000
0"
#2095000
1"
#2100000
1[
0"
1'
#2105000
0[
1e
1"
#2110000
0"
#2115000
1"
#2120000
1Z
0"
0'
#2125000
0Z
0e
1"
#2130000
0"
#2135000
1"
#2140000
1[
0"
1'
#2145000
0[
1e
1"
#2150000
0"
#2155000
1"
#2160000
1Z
0"
0'
